<?xml version="1.0" encoding="UTF-8" standalone="no"?>
<!DOCTYPE svg PUBLIC "-//W3C//DTD SVG 1.1//EN" "http://www.w3.org/Graphics/SVG/1.1/DTD/svg11.dtd">
<svg width="100%" height="100%" viewBox="0 0 28 28" version="1.1" xmlns="http://www.w3.org/2000/svg" xmlns:xlink="http://www.w3.org/1999/xlink" xml:space="preserve" xmlns:serif="http://www.serif.com/" style="fill-rule:evenodd;clip-rule:evenodd;stroke-linejoin:round;stroke-miterlimit:2;">
    <g transform="matrix(0.842027,0,0,0.842749,-4277,-3767.08)">
        <path d="M5112.67,4486.61C5112.67,4477.44 5105.22,4469.99 5096.04,4469.99C5086.86,4469.99 5079.41,4477.44 5079.41,4486.61C5079.41,4495.79 5086.86,4503.24 5096.04,4503.24C5105.22,4503.24 5112.67,4495.79 5112.67,4486.61Z" style="fill:rgb(67,67,59);"/>
        <clipPath id="_clip1">
            <path d="M5112.67,4486.61C5112.67,4477.44 5105.22,4469.99 5096.04,4469.99C5086.86,4469.99 5079.41,4477.44 5079.41,4486.61C5079.41,4495.79 5086.86,4503.24 5096.04,4503.24C5105.22,4503.24 5112.67,4495.79 5112.67,4486.61Z"/>
        </clipPath>
        <g clip-path="url(#_clip1)">
            <g transform="matrix(1.18761,0,0,1.18659,-2546.45,265.587)">
                <path d="M6434.73,3553.38C6434.28,3553.38 6433.85,3553.44 6433.44,3553.56C6433.03,3553.67 6432.59,3553.85 6432.09,3554.11L6431.29,3551.96C6431.79,3551.64 6432.37,3551.4 6433.04,3551.23C6433.71,3551.06 6434.37,3550.97 6435.02,3550.97C6435.83,3550.97 6436.49,3551.08 6437.02,3551.29C6437.55,3551.51 6437.96,3551.78 6438.27,3552.11C6438.57,3552.44 6438.78,3552.8 6438.9,3553.19C6439.02,3553.59 6439.08,3553.96 6439.08,3554.32C6439.08,3554.67 6439.03,3555 6438.92,3555.29C6438.81,3555.59 6438.68,3555.87 6438.51,3556.12C6438.35,3556.37 6438.16,3556.61 6437.94,3556.84C6437.73,3557.07 6437.52,3557.29 6437.32,3557.49C6437.16,3557.64 6437.01,3557.8 6436.84,3557.97C6436.68,3558.14 6436.53,3558.32 6436.39,3558.51C6436.26,3558.7 6436.15,3558.9 6436.06,3559.11C6435.97,3559.32 6435.93,3559.53 6435.93,3559.75L6435.93,3559.98C6435.93,3560.08 6435.94,3560.17 6435.95,3560.24L6433.44,3560.24C6433.41,3560.12 6433.4,3559.97 6433.39,3559.82C6433.39,3559.66 6433.38,3559.52 6433.38,3559.41C6433.38,3559.05 6433.43,3558.73 6433.52,3558.45C6433.6,3558.16 6433.72,3557.9 6433.87,3557.65C6434.01,3557.4 6434.18,3557.17 6434.37,3556.96C6434.56,3556.74 6434.76,3556.53 6434.96,3556.33C6435.25,3556.04 6435.52,3555.75 6435.76,3555.47C6436,3555.18 6436.12,3554.85 6436.12,3554.49C6436.12,3554.18 6436,3553.92 6435.77,3553.71C6435.53,3553.49 6435.19,3553.38 6434.73,3553.38ZM6436.5,3562.94C6436.5,3563.5 6436.32,3563.93 6435.96,3564.23C6435.6,3564.54 6435.19,3564.69 6434.73,3564.69C6434.28,3564.69 6433.87,3564.54 6433.51,3564.23C6433.15,3563.93 6432.97,3563.5 6432.97,3562.94C6432.97,3562.38 6433.15,3561.95 6433.51,3561.65C6433.87,3561.35 6434.28,3561.19 6434.73,3561.19C6435.19,3561.19 6435.6,3561.35 6435.96,3561.65C6436.32,3561.95 6436.5,3562.38 6436.5,3562.94Z" style="fill:rgb(238,232,216);fill-rule:nonzero;"/>
            </g>
        </g>
    </g>
</svg>
