<?xml version="1.0" encoding="UTF-8" standalone="no"?>
<!DOCTYPE svg PUBLIC "-//W3C//DTD SVG 1.1//EN" "http://www.w3.org/Graphics/SVG/1.1/DTD/svg11.dtd">
<svg width="100%" height="100%" viewBox="0 0 21 21" version="1.1" xmlns="http://www.w3.org/2000/svg" xmlns:xlink="http://www.w3.org/1999/xlink" xml:space="preserve" xmlns:serif="http://www.serif.com/" style="fill-rule:evenodd;clip-rule:evenodd;stroke-linejoin:round;stroke-miterlimit:2;">
    <g transform="matrix(4.59484e-17,-0.750394,0.750394,4.59484e-17,-898.002,2895.79)">
        <circle cx="3845.03" cy="1210.7" r="13.993" style="fill:rgb(122,180,205);"/>
        <clipPath id="_clip1">
            <circle cx="3845.03" cy="1210.7" r="13.993"/>
        </clipPath>
        <g clip-path="url(#_clip1)">
            <g transform="matrix(1,0,0,1,-109.245,35.5262)">
                <path d="M3956.87,1173.36L3954.28,1175.95L3951.68,1173.36C3951.43,1173.11 3951,1173.11 3950.75,1173.36C3950.5,1173.64 3950.5,1174.05 3950.75,1174.3L3953.81,1177.36C3954.06,1177.64 3954.5,1177.64 3954.75,1177.36L3957.81,1174.3C3958.06,1174.05 3958.06,1173.64 3957.81,1173.36C3957.56,1173.11 3957.12,1173.11 3956.87,1173.36Z" style="fill:rgb(67,67,59);fill-rule:nonzero;"/>
            </g>
        </g>
        <path d="M3845.03,1196.71C3852.76,1196.71 3859.03,1202.98 3859.03,1210.7C3859.03,1218.42 3852.76,1224.69 3845.03,1224.69C3837.31,1224.69 3831.04,1218.42 3831.04,1210.7C3831.04,1202.98 3837.31,1196.71 3845.03,1196.71ZM3845.03,1199.37C3851.28,1199.37 3856.36,1204.45 3856.36,1210.7C3856.36,1216.95 3851.28,1222.03 3845.03,1222.03C3838.78,1222.03 3833.7,1216.95 3833.7,1210.7C3833.7,1204.45 3838.78,1199.37 3845.03,1199.37Z" style="fill:rgb(122,180,205);"/>
    </g>
</svg>
