<?xml version="1.0" encoding="UTF-8" standalone="no"?>
<svg
   width="100%"
   height="100%"
   viewBox="0 0 28 28"
   version="1.1"
   xml:space="preserve"
   style="fill-rule:evenodd;clip-rule:evenodd;stroke-linejoin:round;stroke-miterlimit:2;"
   id="svg15"
   sodipodi:docname="main_play_unactive.svg"
   inkscape:version="1.1.1 (3bf5ae0d25, 2021-09-20)"
   xmlns:inkscape="http://www.inkscape.org/namespaces/inkscape"
   xmlns:sodipodi="http://sodipodi.sourceforge.net/DTD/sodipodi-0.dtd"
   xmlns="http://www.w3.org/2000/svg"
   xmlns:svg="http://www.w3.org/2000/svg"><defs
   id="defs19" /><sodipodi:namedview
   id="namedview17"
   pagecolor="#ffffff"
   bordercolor="#666666"
   borderopacity="1.0"
   inkscape:pageshadow="2"
   inkscape:pageopacity="0.0"
   inkscape:pagecheckerboard="0"
   showgrid="false"
   inkscape:zoom="14.875"
   inkscape:cx="-10.655462"
   inkscape:cy="14.588235"
   inkscape:window-width="1920"
   inkscape:window-height="1011"
   inkscape:window-x="0"
   inkscape:window-y="32"
   inkscape:window-maximized="1"
   inkscape:current-layer="g13" />
    <g
   transform="matrix(-1.33333,0,0,1.33333,14,28)"
   id="g13">
        <path
   d="M0,-21C-5.799,-21 -10.5,-16.299 -10.5,-10.5C-10.5,-4.701 -5.799,0 0,0C5.799,0 10.5,-4.701 10.5,-10.5C10.5,-16.299 5.799,-21 0,-21"
   style="fill:#b5a898;fill-rule:nonzero;fill-opacity:1"
   id="path2" />
        <clipPath
   id="_clip1">
            <path
   d="M0,-21C-5.799,-21 -10.5,-16.299 -10.5,-10.5C-10.5,-4.701 -5.799,0 0,0C5.799,0 10.5,-4.701 10.5,-10.5C10.5,-16.299 5.799,-21 0,-21"
   clip-rule="nonzero"
   id="path4" />
        </clipPath>
        <g
   clip-path="url(#_clip1)"
   id="g11">
            <g
   transform="matrix(-1,0,0,1,1.9174,-14.8412)"
   id="g9">
                <path
   d="M0,8.682C0.062,8.704 0.137,8.68 0.228,8.609L5.274,4.596C5.317,4.566 5.348,4.53 5.367,4.489C5.346,4.489 5.365,4.205 5.367,4.195C5.348,4.157 5.317,4.121 5.274,4.087L0.228,0.075C0.137,0.002 0.062,-0.022 0,-0C-0.062,0.024 -0.092,0.083 -0.092,0.182L-0.092,8.501C-0.092,8.599 -0.062,8.66 0,8.682"
   style="fill:rgb(238,232,216);fill-rule:nonzero;"
   id="path7" />
            </g>
        </g>
    </g>
</svg>
