<?xml version="1.0" encoding="UTF-8" standalone="no"?>
<!DOCTYPE svg PUBLIC "-//W3C//DTD SVG 1.1//EN" "http://www.w3.org/Graphics/SVG/1.1/DTD/svg11.dtd">
<svg width="100%" height="100%" viewBox="0 0 56 56" version="1.1" xmlns="http://www.w3.org/2000/svg" xmlns:xlink="http://www.w3.org/1999/xlink" xml:space="preserve" xmlns:serif="http://www.serif.com/" style="fill-rule:evenodd;clip-rule:evenodd;stroke-linejoin:round;stroke-miterlimit:2;">
    <g transform="matrix(1,0,0,1,-6427.59,-2145.74)">
        <rect x="6427.61" y="2145.76" width="55.971" height="55.971" style="fill:none;"/>
        <clipPath id="_clip1">
            <rect x="6427.61" y="2145.76" width="55.971" height="55.971"/>
        </clipPath>
        <g clip-path="url(#_clip1)">
            <g transform="matrix(1.33264,0,0,1,5942.52,2075.74)">
                <rect x="364" y="84" width="42" height="28" style="fill:rgb(255,187,51);"/>
                <g transform="matrix(0.562791,0,0,0.75,83.3944,-1375.3)">
                    <path d="M527.515,1969.84L527.515,1958.75L535.003,1958.75L535.003,1960.85L530.011,1960.85L530.011,1963.02L534.443,1963.02L534.443,1965.07L530.011,1965.07L530.011,1967.74L535.371,1967.74L535.371,1969.84L527.515,1969.84Z" style="fill:rgb(67,67,59);fill-rule:nonzero;"/>
                    <path d="M545.443,1958.75L545.443,1960.88L542.099,1960.88L542.099,1969.84L539.603,1969.84L539.603,1960.88L536.259,1960.88L536.259,1958.75L545.443,1958.75Z" style="fill:rgb(67,67,59);fill-rule:nonzero;"/>
                </g>
                <path d="M406,84L364,84L364,112L406,112L406,84ZM404.499,86L404.499,110C404.499,110 365.501,110 365.501,110C365.501,110 365.501,86 365.501,86L404.499,86Z" style="fill:rgb(255,187,51);"/>
            </g>
        </g>
    </g>
</svg>
