<?xml version="1.0" encoding="UTF-8" standalone="no"?>
<!DOCTYPE svg PUBLIC "-//W3C//DTD SVG 1.1//EN" "http://www.w3.org/Graphics/SVG/1.1/DTD/svg11.dtd">
<svg width="100%" height="100%" viewBox="0 0 28 28" version="1.1" xmlns="http://www.w3.org/2000/svg" xmlns:xlink="http://www.w3.org/1999/xlink" xml:space="preserve" xmlns:serif="http://www.serif.com/" style="fill-rule:evenodd;clip-rule:evenodd;stroke-linejoin:round;stroke-miterlimit:2;">
    <g transform="matrix(0.141775,0,0,0.510392,-1658.89,-417.758)">
        <rect x="11701.4" y="818.504" width="197.495" height="54.86" style="fill:none;"/>
        <g transform="matrix(2.22045e-16,1.95928,-7.05341,1.11022e-16,17262.3,-22387.2)">
            <path d="M11855.1,770.712C11854.8,770.384 11854.8,769.851 11855.1,769.482L11857.4,767.226C11857.7,766.898 11858.3,766.898 11858.6,767.226L11860.9,769.482C11861.2,769.851 11861.2,770.384 11860.9,770.712C11860.5,771.082 11860,771.082 11859.6,770.712L11858.9,769.974L11858.9,774.445C11858.9,775.347 11859.2,776.249 11859.9,776.906L11863.5,780.515C11863.9,780.843 11863.9,781.417 11863.5,781.746C11863.2,782.074 11862.6,782.074 11862.3,781.746L11858,777.48L11853.7,781.746C11853.4,782.074 11852.8,782.074 11852.5,781.746C11852.1,781.417 11852.1,780.843 11852.5,780.515L11856.1,776.906C11856.8,776.249 11857.1,775.347 11857.1,774.445L11857.1,769.974L11856.4,770.712C11856,771.082 11855.5,771.082 11855.1,770.712Z" style="fill:rgb(238,232,216);fill-rule:nonzero;"/>
        </g>
    </g>
</svg>
