<?xml version="1.0" encoding="UTF-8" standalone="no"?>
<!DOCTYPE svg PUBLIC "-//W3C//DTD SVG 1.1//EN" "http://www.w3.org/Graphics/SVG/1.1/DTD/svg11.dtd">
<svg width="100%" height="100%" viewBox="0 0 28 28" version="1.1" xmlns="http://www.w3.org/2000/svg" xmlns:xlink="http://www.w3.org/1999/xlink" xml:space="preserve" xmlns:serif="http://www.serif.com/" style="fill-rule:evenodd;clip-rule:evenodd;stroke-linejoin:round;stroke-miterlimit:2;">
    <g id="import" transform="matrix(0.75,0,0,0.75,-88.75,-458.489)">
        <rect x="123" y="615.985" width="28" height="28" style="fill:none;"/>
        <g transform="matrix(1.33333,0,0,1.33333,-46.4823,511.656)">
            <path d="M139.909,87.493L139.112,87.493L139.112,84.985C139.112,84.727 138.877,84.493 138.62,84.493L136.604,84.493C136.346,84.493 136.112,84.727 136.112,84.985L136.112,87.493L135.315,87.493C134.87,87.493 134.635,88.032 134.963,88.336L137.26,90.633C137.448,90.844 137.776,90.844 137.963,90.633L140.26,88.336C140.565,88.032 140.354,87.493 139.909,87.493ZM134.12,92.485C134.12,92.766 134.33,93 134.612,93L140.612,93C140.893,93 141.104,92.766 141.104,92.485C141.104,92.227 140.893,91.993 140.612,91.993L134.612,91.993C134.33,91.993 134.12,92.227 134.12,92.485Z" style="fill:rgb(67,67,59);fill-rule:nonzero;"/>
        </g>
    </g>
</svg>
