<?xml version="1.0" encoding="UTF-8" standalone="no"?>
<svg
   viewBox="0 0 28 28"
   fill="#EBC150"
   version="1.1"
   id="svg11"
   sodipodi:docname="restore.svg"
   inkscape:version="1.1.2 (0a00cf5339, 2022-02-04)"
   xmlns:inkscape="http://www.inkscape.org/namespaces/inkscape"
   xmlns:sodipodi="http://sodipodi.sourceforge.net/DTD/sodipodi-0.dtd"
   xmlns="http://www.w3.org/2000/svg"
   xmlns:svg="http://www.w3.org/2000/svg">
  <sodipodi:namedview
     id="namedview13"
     pagecolor="#505050"
     bordercolor="#eeeeee"
     borderopacity="1"
     inkscape:pageshadow="0"
     inkscape:pageopacity="0"
     inkscape:pagecheckerboard="0"
     showgrid="false"
     inkscape:zoom="29.75"
     inkscape:cx="13.983193"
     inkscape:cy="14.016807"
     inkscape:window-width="1920"
     inkscape:window-height="1011"
     inkscape:window-x="0"
     inkscape:window-y="32"
     inkscape:window-maximized="1"
     inkscape:current-layer="svg11" />
  <defs
     id="defs4">
    <style
       id="style2">.cls-1{fill:#fff;}</style>
  </defs>
  <path
     class="cls-1"
     d="M 14,23.1 A 8.40666,8.40666 0 0 1 5.6,14.7 H 8.4 A 5.6,5.6 0 1 0 13.776,9.114 L 15.974,11.312 14,13.3 8.4,7.7 14,2.1 l 1.974,1.974 -2.24,2.24 A 8.39519,8.39519 0 1 1 14,23.1 Z"
     id="path8" />
</svg>
