<?xml version="1.0" encoding="UTF-8" standalone="no"?>
<!DOCTYPE svg PUBLIC "-//W3C//DTD SVG 1.1//EN" "http://www.w3.org/Graphics/SVG/1.1/DTD/svg11.dtd">
<svg width="100%" height="100%" viewBox="0 0 56 56" version="1.1" xmlns="http://www.w3.org/2000/svg" xmlns:xlink="http://www.w3.org/1999/xlink" xml:space="preserve" xmlns:serif="http://www.serif.com/" style="fill-rule:evenodd;clip-rule:evenodd;stroke-linejoin:round;stroke-miterlimit:1.5;">
    <g id="Parametros" transform="matrix(1,0,0,1,35.7285,35.7275)">
        <path d="M0,-15.455C-1.284,-16.739 -2.992,-17.447 -4.809,-17.447C-6.625,-17.447 -8.333,-16.739 -9.617,-15.455C-10.901,-14.17 -11.608,-12.463 -11.608,-10.646C-11.608,-9.02 -11.042,-7.483 -10.003,-6.257L-11.378,-4.882C-12.083,-5.245 -12.972,-5.132 -13.563,-4.541L-16.898,-1.205C-17.252,-0.851 -17.446,-0.381 -17.446,0.119C-17.446,0.62 -17.252,1.09 -16.898,1.444C-16.533,1.809 -16.053,1.992 -15.573,1.992C-15.094,1.992 -14.614,1.809 -14.249,1.444L-10.913,-1.892C-10.559,-2.246 -10.364,-2.717 -10.364,-3.217C-10.364,-3.521 -10.437,-3.814 -10.572,-4.077L-9.198,-5.451C-7.972,-4.412 -6.434,-3.846 -4.809,-3.846C-2.992,-3.846 -1.284,-4.553 0,-5.837C1.284,-7.122 1.991,-8.83 1.991,-10.646C1.991,-12.463 1.284,-14.17 0,-15.455M-7.125,-8.216C-7.125,-7.902 -7.379,-7.646 -7.694,-7.646C-8.009,-7.646 -8.264,-7.902 -8.264,-8.216L-8.264,-10.039C-8.264,-10.353 -8.009,-10.608 -7.694,-10.608C-7.379,-10.608 -7.125,-10.353 -7.125,-10.039L-7.125,-8.216ZM-5.227,-8.216C-5.227,-7.902 -5.481,-7.646 -5.796,-7.646C-6.11,-7.646 -6.365,-7.902 -6.365,-8.216L-6.365,-11.937C-6.365,-12.251 -6.11,-12.507 -5.796,-12.507C-5.481,-12.507 -5.227,-12.251 -5.227,-11.937L-5.227,-8.216ZM-3.328,-8.216C-3.328,-7.902 -3.583,-7.646 -3.897,-7.646C-4.212,-7.646 -4.467,-7.902 -4.467,-8.216L-4.467,-11.178C-4.467,-11.492 -4.212,-11.747 -3.897,-11.747C-3.583,-11.747 -3.328,-11.492 -3.328,-11.178L-3.328,-8.216ZM-1.43,-8.216C-1.43,-7.902 -1.685,-7.646 -1.999,-7.646C-2.313,-7.646 -2.568,-7.902 -2.568,-8.216L-2.568,-13.076C-2.568,-13.391 -2.313,-13.646 -1.999,-13.646C-1.685,-13.646 -1.43,-13.391 -1.43,-13.076L-1.43,-8.216Z" style="fill:rgb(238,232,216);fill-rule:nonzero;"/>
    </g>
    <g transform="matrix(1,0,0,1,-5230.26,-280)">
        <path d="M5258.26,287L5258.26,286.999C5246.66,286.999 5237.26,296.402 5237.26,308C5237.26,319.598 5246.66,329 5258.26,329L5258.26,329.001C5269.85,329.001 5279.26,319.598 5279.26,308.001C5279.26,296.402 5269.85,287 5258.26,287ZM5258.26,288.749C5247.62,288.749 5239.01,297.368 5239.01,308C5239.01,318.632 5247.62,327.251 5258.26,327.251L5258.26,327.251C5268.89,327.251 5277.51,318.632 5277.51,308.001C5277.51,297.368 5268.89,288.749 5258.26,288.749L5258.26,288.749ZM5274.88,308C5274.88,298.824 5267.43,291.373 5258.26,291.373C5249.08,291.373 5241.63,298.824 5241.63,308C5241.63,317.176 5249.08,324.627 5258.26,324.627C5267.43,324.627 5274.88,317.176 5274.88,308Z" style="fill:rgb(67,67,59);"/>
        <clipPath id="_clip1">
            <path d="M5258.26,287L5258.26,286.999C5246.66,286.999 5237.26,296.402 5237.26,308C5237.26,319.598 5246.66,329 5258.26,329L5258.26,329.001C5269.85,329.001 5279.26,319.598 5279.26,308.001C5279.26,296.402 5269.85,287 5258.26,287ZM5258.26,288.749C5247.62,288.749 5239.01,297.368 5239.01,308C5239.01,318.632 5247.62,327.251 5258.26,327.251L5258.26,327.251C5268.89,327.251 5277.51,318.632 5277.51,308.001C5277.51,297.368 5268.89,288.749 5258.26,288.749L5258.26,288.749ZM5274.88,308C5274.88,298.824 5267.43,291.373 5258.26,291.373C5249.08,291.373 5241.63,298.824 5241.63,308C5241.63,317.176 5249.08,324.627 5258.26,324.627C5267.43,324.627 5274.88,317.176 5274.88,308Z"/>
        </clipPath>
        <g clip-path="url(#_clip1)">
            <g transform="matrix(0.183826,0,0,1.95076,5164.52,-680.169)">
                <g transform="matrix(0.893608,-0.0225792,0.382257,0.0793927,-10922.9,-376.491)">
                    <path d="M7175.19,13135L7209.37,13100.8" style="fill:none;stroke:rgb(255,238,204);stroke-width:8.18px;"/>
                </g>
                <g transform="matrix(-0.893608,-0.0225792,-0.382257,0.0793927,11942.6,-376.491)">
                    <path d="M7175.19,13135L7209.37,13100.8" style="fill:none;stroke:rgb(255,238,204);stroke-width:8.18px;"/>
                </g>
                <g transform="matrix(1,0,0,0.0942332,-6678.06,-732.289)">
                    <path d="M7213.4,13142.4L7228.4,13136.1L7232.07,13121.8" style="fill:none;stroke:rgb(255,238,204);stroke-width:8.16px;"/>
                </g>
                <g transform="matrix(1,0,0,0.0725803,-6671.57,-447.512)">
                    <path d="M7206.91,13160.7L7222.49,13169.4L7225.58,13181" style="fill:none;stroke:rgb(255,238,204);stroke-width:9.14px;"/>
                </g>
                <g transform="matrix(1,0,0,0.0942332,-6674.45,-732.66)">
                    <path d="M7206.91,13178.2L7220.45,13193.9L7225.58,13208.3" style="fill:none;stroke:rgb(255,238,204);stroke-width:8.16px;"/>
                </g>
                <g transform="matrix(-1,0,0,0.0942332,7697.84,-732.289)">
                    <path d="M7213.4,13142.4L7228.4,13136.1L7232.07,13121.8" style="fill:none;stroke:rgb(255,238,204);stroke-width:8.16px;"/>
                </g>
                <g transform="matrix(-1,0,0,0.0725803,7691.35,-447.512)">
                    <path d="M7206.91,13160.7L7222.49,13169.4L7225.58,13181" style="fill:none;stroke:rgb(255,238,204);stroke-width:9.14px;"/>
                </g>
                <g transform="matrix(-1,0,0,0.0942332,7694.22,-732.66)">
                    <path d="M7206.91,13178.2L7220.45,13193.9L7225.58,13208.3" style="fill:none;stroke:rgb(255,238,204);stroke-width:8.16px;"/>
                </g>
                <g transform="matrix(1,0,0,0.0942332,-6671.03,-733.429)">
                    <path d="M7152.46,13138.1C7152.46,13122.4 7165.21,13109.6 7180.92,13109.6C7196.62,13109.6 7209.37,13122.4 7209.37,13138.1" style="fill:rgb(255,238,204);"/>
                </g>
                <g transform="matrix(1,0,0,0.0942332,-6671.03,-739.621)">
                    <path d="M7209.37,13211.9L7152.46,13211.9L7152.46,13245C7152.46,13263.1 7163.88,13279.2 7180.92,13285.1C7180.92,13285.1 7180.92,13285.1 7180.92,13285.1C7180.92,13285.1 7180.92,13285.1 7180.92,13285.1C7197.96,13279.2 7209.37,13263.1 7209.37,13245L7209.37,13211.9Z" style="fill:rgb(255,238,204);"/>
                </g>
                <g transform="matrix(1,0,0,0.0942332,-6671.03,-732.66)">
                    <path d="M7180.92,13211.2L7180.92,13138.1" style="fill:none;stroke:rgb(67,67,59);stroke-width:8.16px;"/>
                </g>
            </g>
        </g>
    </g>
</svg>
